{
    "list_mots": [
        "armoire",
        "boucle",
        "buisson",
        "bureau",
        "chaise",
        "carton",
        "couteau",
        "fichier",
        "garage",
        "glace",
        "journal",
        "kiwi",
        "lampe",
        "liste",
        "montagne",
        "remise",
        "sandale",
        "taxi",
        "vampire",
        "volant",
        "caca",
        "chien",
        "clavier"
    ]
}